\relax 
\providecommand\hyper@newdestlabel[2]{}
\providecommand\HyperFirstAtBeginDocument{\AtBeginDocument}
\HyperFirstAtBeginDocument{\ifx\hyper@anchor\@undefined
\global\let\oldcontentsline\contentsline
\gdef\contentsline#1#2#3#4{\oldcontentsline{#1}{#2}{#3}}
\global\let\oldnewlabel\newlabel
\gdef\newlabel#1#2{\newlabelxx{#1}#2}
\gdef\newlabelxx#1#2#3#4#5#6{\oldnewlabel{#1}{{#2}{#3}}}
\AtEndDocument{\ifx\hyper@anchor\@undefined
\let\contentsline\oldcontentsline
\let\newlabel\oldnewlabel
\fi}
\fi}
\global\let\hyper@last\relax 
\gdef\HyperFirstAtBeginDocument#1{#1}
\providecommand\HyField@AuxAddToFields[1]{}
\providecommand\HyField@AuxAddToCoFields[2]{}
\citation{Fletcher2010,Berke2010}
\citation{Reidenberg2010}
\citation{Riede2011,Riede2011a,Roberts1975}
\citation{Brudzynski2010}
\citation{white1998,berry1970natural,Fenton1998,Jones2006,bogdanowicz1994,Frankel2009,Whitehead2009,Rendell1999,Kastelein2000,Jefferson1993}
\citation{Brudzynski2010}
\citation{white1998,berry1970natural,Fenton1998,Jones2006,bogdanowicz1994,Frankel2009,Whitehead2009,Rendell1999,Kastelein2000,Jefferson1993}
\newlabel{FirstPage}{{}{1}{}{Doc-Start}{}}
\citation{Howe2008,Blake1986}
\citation{Holger1977,Howe2008}
\citation{Brudzynski2010}
\citation{Howe2008,Brudzynski2010}
\citation{Roberts1975}
\citation{Brudzynski2010,Chanaud1965,Howe2008}
\citation{Dornfeld2018}
\citation{Dornfeld2018}
\@writefile{lof}{\contentsline {figure}{\numberline {1}{\ignorespaces  The purple boxes show the ranges of audible frequencies emitted by several mammals plotted against the ranges of their masses. The solid and dotted lines show plots of a frequency scaling law of the form $f\propto M^{-\alpha }$. The dotted line ($\alpha =\frac  {1}{3}$) is a theoretical relationship based on the conjecture that the average frequency emitted in audible vocalizations should be inversely proportional to the linear scale of the animal. The solid line ($\alpha =0.4$) is a power law fit to the purple boxes \cite  {Brudzynski2010}. The green boxes show the range of ultrasonic frequencies emitted by several mammalian species plotted against their masses \cite  {white1998,berry1970natural,Fenton1998,Jones2006,bogdanowicz1994,Frankel2009,Whitehead2009,Rendell1999,Kastelein2000,Jefferson1993}.}}{2}{figure.1}}
\newlabel{fig:frequency_scaling}{{1}{2}{The purple boxes show the ranges of audible frequencies emitted by several mammals plotted against the ranges of their masses. The solid and dotted lines show plots of a frequency scaling law of the form $f\propto M^{-\alpha }$. The dotted line ($\alpha =\frac {1}{3}$) is a theoretical relationship based on the conjecture that the average frequency emitted in audible vocalizations should be inversely proportional to the linear scale of the animal. The solid line ($\alpha =0.4$) is a power law fit to the purple boxes \cite {Brudzynski2010}. The green boxes show the range of ultrasonic frequencies emitted by several mammalian species plotted against their masses \cite {white1998,berry1970natural,Fenton1998,Jones2006,bogdanowicz1994,Frankel2009,Whitehead2009,Rendell1999,Kastelein2000,Jefferson1993}}{figure.1}{}}
\newlabel{eq:whistle}{{1}{2}{}{equation.0.1}{}}
\citation{Gardner2006}
\citation{DornfeldGitlab}
\citation{Howe2008}
\citation{Howe2008}
\bibdata{mdornfe1.bib}
\@writefile{lof}{\contentsline {figure}{\numberline {2}{\ignorespaces  Reassigned spectrogram of a segment of a rat USV. The orange line is the output of the curve fitting algorithm. The green circles show the output of the jump extraction algorithm.}}{3}{figure.2}}
\newlabel{fig:specgram}{{2}{3}{Reassigned spectrogram of a segment of a rat USV. The orange line is the output of the curve fitting algorithm. The green circles show the output of the jump extraction algorithm}{figure.2}{}}
\newlabel{eq:freqmode2}{{2}{3}{}{equation.0.2}{}}
\newlabel{eq:cost}{{3}{3}{}{equation.0.3}{}}
\bibcite{Fletcher2010}{{1}{}{{}}{{}}}
\bibcite{Berke2010}{{2}{}{{}}{{}}}
\bibcite{Reidenberg2010}{{3}{}{{}}{{}}}
\bibcite{Riede2011}{{4}{}{{}}{{}}}
\bibcite{Riede2011a}{{5}{}{{}}{{}}}
\bibcite{Roberts1975}{{6}{}{{}}{{}}}
\bibcite{Brudzynski2010}{{7}{}{{}}{{}}}
\bibcite{white1998}{{8}{}{{}}{{}}}
\bibcite{berry1970natural}{{9}{}{{}}{{}}}
\bibcite{Fenton1998}{{10}{}{{}}{{}}}
\bibcite{Jones2006}{{11}{}{{}}{{}}}
\bibcite{bogdanowicz1994}{{12}{}{{}}{{}}}
\bibcite{Frankel2009}{{13}{}{{}}{{}}}
\@writefile{lof}{\contentsline {figure}{\numberline {3}{\ignorespaces After jump frequency plotted against before jump frequency for jumps extracted from V4. The points are color coded according to the transition cluster they were assigned by the clustering algorithm. The legend in the bottom right shows which mode transitions ($n\rightarrow n\pm 1$) correspond to the color. The lines are plots of Eq. \ref  {eq:freqmode2}, for $\gamma =\gamma _{min}^{V4}$ and obey the same color coding scheme.}}{4}{figure.3}}
\newlabel{fig:jumps}{{3}{4}{After jump frequency plotted against before jump frequency for jumps extracted from V4. The points are color coded according to the transition cluster they were assigned by the clustering algorithm. The legend in the bottom right shows which mode transitions ($n\rightarrow n\pm 1$) correspond to the color. The lines are plots of Eq. \ref {eq:freqmode2}, for $\gamma =\gamma _{min}^{V4}$ and obey the same color coding scheme}{figure.3}{}}
\@writefile{lof}{\contentsline {figure}{\numberline {4}{\ignorespaces  The blue shows $\gamma _{min}^{rat}$ along with 95 \% confidence intervals obtained from bootstrap analysis. The red shows values of $\gamma $ known for several whistle types \cite  {Howe2008}.}}{4}{figure.4}}
\newlabel{fig:gamma_error}{{4}{4}{The blue shows $\gamma _{min}^{rat}$ along with 95 \% confidence intervals obtained from bootstrap analysis. The red shows values of $\gamma $ known for several whistle types \cite {Howe2008}}{figure.4}{}}
\@writefile{toc}{\contentsline {section}{\numberline {}References}{4}{section*.1}}
\bibcite{Whitehead2009}{{14}{}{{}}{{}}}
\bibcite{Rendell1999}{{15}{}{{}}{{}}}
\bibcite{Kastelein2000}{{16}{}{{}}{{}}}
\bibcite{Jefferson1993}{{17}{}{{}}{{}}}
\bibcite{Howe2008}{{18}{}{{}}{{}}}
\bibcite{Blake1986}{{19}{}{{}}{{}}}
\bibcite{Holger1977}{{20}{}{{}}{{}}}
\bibcite{Chanaud1965}{{21}{}{{}}{{}}}
\bibcite{Dornfeld2018}{{22}{}{{}}{{}}}
\bibcite{Gardner2006}{{23}{}{{}}{{}}}
\bibcite{jump_appendix}{{24}{}{{}}{{}}}
\bibcite{DornfeldGitlab}{{25}{}{{}}{{}}}
\global \chardef \firstnote@num25\relax 
\providecommand\NAT@force@numbers{}\NAT@force@numbers
\bibstyle{prsty}
\newlabel{LastPage}{{}{5}{}{page.5}{}}
\newlabel{LastBibItem}{{25}{5}{}{section*.1}{}}
